…
```r
# Class with the highest IQ Average
print(as_tibble(class.disc %>%
    arrange(desc(avg.IQ))), n=5)
```

```
## # A tibble: 133 x 8
##   class    GS avg.IQ sd.IQ avg.SES sd.ses avg.lang sd.lang
##   <fct> <int>  <dbl> <dbl>   <dbl>  <dbl>    <dbl>   <dbl>
## 1 9480     25   13.7  2.40    34.7   9.88     47      6.13
## 2 6280     26   13.6  2.15    36.7  10.5      46.8    5.22
## 3 12180    23   13.6  1.54    30.5   9.29     40.6    8.41
## 4 19780    35   13.6  1.83    27.2   4.79     45.3    7.79
## 5 2980     22   13.4  3.42    42.7   6.02     46.5    6.22
## # ... with 128 more rows
```
…
```r
# Class with the highest SES Average
print(as_tibble(class.disc %>%
    arrange(desc(avg.SES))), n=5)
```

```
## # A tibble: 133 x 8
##   class    GS avg.IQ sd.IQ avg.SES sd.ses avg.lang sd.lang
##   <fct> <int>  <dbl> <dbl>   <dbl>  <dbl>    <dbl>   <dbl>
## 1 2980     22   13.4  3.42    42.7   6.02     46.5    6.22
## 2 5480     32   13.0  1.83    41.1   9.11     45.8    7.34
## 3 24680    32   12.8  1.66    40.4  10.8      45.5    7.85
## 4 15280    17   12.4  1.24    40.2   6.84     48      5.65
## 5 5780     31   12.0  1.94    39.2   8.03     41.6    7.98
## # ... with 128 more rows
```
…
```r
# Class with the highest Language Score Average
print(as_tibble(class.disc %>%
    arrange(desc(avg.lang))), n=5)
```

```
## # A tibble: 133 x 8
##   class    GS avg.IQ sd.IQ avg.SES sd.ses avg.lang sd.lang
##   <fct> <int>  <dbl> <dbl>   <dbl>  <dbl>    <dbl>   <dbl>
## 1 22880    25   12.4  2.09    27.3   6.77     49.2    4.93
## 2 14780    22   12.7  1.24    23.5   4.82     49.1    5.25
## 3 19380    31   12.7  1.54    25     8.45     48.4    6.19
## 4 15280    17   12.4  1.24    40.2   6.84     48      5.65
## 5 13680    30   12.9  1.07    30.1   9.31     47.4    5.82
## # ... with 128 more rows
```
…
