ANLYTC3 Mini-Project
…
##       Mean
## 1 40.93485

# Average Language Exam per class
avg.class.lang <-  data %>% group_by(class) %>% summarise(data, Mean = mean(lang))

## `summarise()` has grouped output by 'class'. You can override using the
## `.groups` argument.

avg.class.lang

## # A tibble: 304,171 x 7
## # Groups:   class [133]
##    class  lang    IQ    GS   SES COMB   Mean
##    <fct> <int> <dbl> <int> <int> <fct> <dbl>
##  1 180      46  15      29    23 0      40.9
##  2 180      45  14.5    29    10 0      40.9
##  3 180      33   9.5    29    15 0      40.9
##  4 180      46  11      29    23 0      40.9
##  5 180      20   8      29    10 0      40.9
##  6 180      30   9.5    29    10 0      40.9
##  7 180      30   9.5    29    23 0      40.9
##  8 180      57  13      29    10 0      40.9
##  9 180      36   9.5    29    13 0      40.9
## 10 180      36  11      29    15 0      40.9
## # ... with 304,161 more rows
…
